Register/simulation/qsim/Register.msim.vcd
$comment
	File created using the following command:
		vcd file Register.msim.vcd -direction
$end
$date
	Wed Mar 11 11:31:47 2015
$end
$version
	ModelSim Version 10.1d
$end
$timescale
	1ps
$end
$scope module RegisterN_vlg_vec_tst $end
$var reg 1 ! clk $end
$var reg 4 " d [3:0] $end
$var reg 1 # wrEn $end
$var wire 1 $ q [3] $end
$var wire 1 % q [2] $end
$var wire 1 & q [1] $end
$var wire 1 ' q [0] $end
$var wire 1 ( sampler $end
$scope module i1 $end
$var wire 1 ) gnd $end
$var wire 1 * vcc $end
$var wire 1 + unknown $end
$var tri1 1 , devclrn $end
$var tri1 1 - devpor $end
$var tri1 1 . devoe $end
$var wire 1 / q[0]~output_o $end
$var wire 1 0 q[1]~output_o $end
$var wire 1 1 q[2]~output_o $end
$var wire 1 2 q[3]~output_o $end
$var wire 1 3 clk~input_o $end
$var wire 1 4 d[0]~input_o $end
$var wire 1 5 wrEn~input_o $end
$var wire 1 6 q[0]~reg0_q $end
$var wire 1 7 d[1]~input_o $end
$var wire 1 8 q[1]~reg0_q $end
$var wire 1 9 d[2]~input_o $end
$var wire 1 : q[2]~reg0_q $end
$var wire 1 ; d[3]~input_o $end
$var wire 1 < q[3]~reg0_q $end
$upscope $end
$upscope $end
$enddefinitions $end
#0
$dumpvars
0!
b0 "
0#
0'
0&
0%
0$
x(
0)
1*
x+
1,
1-
1.
0/
00
01
02
03
04
05
06
07
08
09
0:
0;
0<
$end
#20000
1!
b10 "
b11 "
1#
13
14
17
15
0(
#80000
b10 "
04
1(
#100000
b1010 "
b1110 "
19
1;
0(
#110000
0!
03
1(
#160000
b110 "
b10 "
09
0;
0(
#170000
1!
13
1(
18
10
1&
#200000
b0 "
b1 "
0!
14
07
03
0(
#220000
b1001 "
b1101 "
19
1;
1(
#260000
b1111 "
b1110 "
1!
04
17
13
0(
1<
1:
12
11
1$
1%
#280000
b110 "
b10 "
09
0;
1(
#290000
0!
03
0(
#320000
b0 "
b1 "
14
07
1(
#350000
1!
13
0(
0<
0:
08
16
02
01
00
1/
0$
0%
0&
1'
#380000
b11 "
b10 "
0!
04
17
03
1(
#400000
b1010 "
b1110 "
19
1;
0(
#410000
1!
13
1(
1<
1:
18
06
12
11
10
0/
1$
1%
1&
0'
#460000
b110 "
b10 "
09
0;
0(
#470000
0!
03
1(
#500000
b0 "
07
0(
#580000
b1000 "
b1100 "
19
1;
1(
#640000
b100 "
b0 "
09
0;
0(
#650000
1!
13
1(
0<
0:
08
02
01
00
0$
0%
0&
#660000
0#
05
0(
#680000
b1 "
0!
14
03
1(
#740000
b11 "
17
0(
#770000
1!
13
1(
#860000
b10 "
04
0(
#880000
b1010 "
b1110 "
19
1;
1(
#890000
0!
03
0(
#920000
b1100 "
b1101 "
1!
14
07
13
1(
#980000
b101 "
b1 "
b0 "
04
09
0;
0(
